{
    "page": 1,
    "per_page": 15,
    "photos": [
      {
        "id": 8984574,
        "width": 3309,
        "height": 5883,
        "url": "https://www.pexels.com/photo/left-hand-of-a-man-in-grayscale-photography-8984574/",
        "photographer": "Elijah O'Donnell",
        "photographer_url": "https://www.pexels.com/@elijahsad",
        "photographer_id": 1257224,
        "avg_color": "#373737",
        "src": {
          "original": "https://images.pexels.com/photos/8984574/pexels-photo-8984574.jpeg",
          "large2x": "https://images.pexels.com/photos/8984574/pexels-photo-8984574.jpeg?auto=compress&cs=tinysrgb&dpr=2&h=650&w=940",
          "large": "https://images.pexels.com/photos/8984574/pexels-photo-8984574.jpeg?auto=compress&cs=tinysrgb&h=650&w=940",
          "medium": "https://images.pexels.com/photos/8984574/pexels-photo-8984574.jpeg?auto=compress&cs=tinysrgb&h=350",
          "small": "https://images.pexels.com/photos/8984574/pexels-photo-8984574.jpeg?auto=compress&cs=tinysrgb&h=130",
          "portrait": "https://images.pexels.com/photos/8984574/pexels-photo-8984574.jpeg?auto=compress&cs=tinysrgb&fit=crop&h=1200&w=800",
          "landscape": "https://images.pexels.com/photos/8984574/pexels-photo-8984574.jpeg?auto=compress&cs=tinysrgb&fit=crop&h=627&w=1200",
          "tiny": "https://images.pexels.com/photos/8984574/pexels-photo-8984574.jpeg?auto=compress&cs=tinysrgb&dpr=1&fit=crop&h=200&w=280"
        }
      },
      {
        "id": 1040158,
        "width": 5400,
        "height": 3600,
        "url": "https://www.pexels.com/photo/woman-in-white-bed-holding-remote-control-while-eating-popcorn-1040158/",
        "photographer": "JESHOOTS.com",
        "photographer_url": "https://www.pexels.com/@jeshoots-com-147458",
        "photographer_id": 147458,
        "avg_color": "#4C6684",
        "src": {
          "original": "https://images.pexels.com/photos/1040158/pexels-photo-1040158.jpeg",
          "large2x": "https://images.pexels.com/photos/1040158/pexels-photo-1040158.jpeg?auto=compress&cs=tinysrgb&dpr=2&h=650&w=940",
          "large": "https://images.pexels.com/photos/1040158/pexels-photo-1040158.jpeg?auto=compress&cs=tinysrgb&h=650&w=940",
          "medium": "https://images.pexels.com/photos/1040158/pexels-photo-1040158.jpeg?auto=compress&cs=tinysrgb&h=350",
          "small": "https://images.pexels.com/photos/1040158/pexels-photo-1040158.jpeg?auto=compress&cs=tinysrgb&h=130",
          "portrait": "https://images.pexels.com/photos/1040158/pexels-photo-1040158.jpeg?auto=compress&cs=tinysrgb&fit=crop&h=1200&w=800",
          "landscape": "https://images.pexels.com/photos/1040158/pexels-photo-1040158.jpeg?auto=compress&cs=tinysrgb&fit=crop&h=627&w=1200",
          "tiny": "https://images.pexels.com/photos/1040158/pexels-photo-1040158.jpeg?auto=compress&cs=tinysrgb&dpr=1&fit=crop&h=200&w=280"
        }
      },
      {
        "id": 8744787,
        "width": 3840,
        "height": 5760,
        "url": "https://www.pexels.com/photo/photo-of-a-woman-looking-back-while-walking-on-the-beach-8744787/",
        "photographer": "Lena Goncharova",
        "photographer_url": "https://www.pexels.com/@lena-goncharova-78970252",
        "photographer_id": 78970252,
        "avg_color": "#CDC9BE",
        "src": {
          "original": "https://images.pexels.com/photos/8744787/pexels-photo-8744787.jpeg",
          "large2x": "https://images.pexels.com/photos/8744787/pexels-photo-8744787.jpeg?auto=compress&cs=tinysrgb&dpr=2&h=650&w=940",
          "large": "https://images.pexels.com/photos/8744787/pexels-photo-8744787.jpeg?auto=compress&cs=tinysrgb&h=650&w=940",
          "medium": "https://images.pexels.com/photos/8744787/pexels-photo-8744787.jpeg?auto=compress&cs=tinysrgb&h=350",
          "small": "https://images.pexels.com/photos/8744787/pexels-photo-8744787.jpeg?auto=compress&cs=tinysrgb&h=130",
          "portrait": "https://images.pexels.com/photos/8744787/pexels-photo-8744787.jpeg?auto=compress&cs=tinysrgb&fit=crop&h=1200&w=800",
          "landscape": "https://images.pexels.com/photos/8744787/pexels-photo-8744787.jpeg?auto=compress&cs=tinysrgb&fit=crop&h=627&w=1200",
          "tiny": "https://images.pexels.com/photos/8744787/pexels-photo-8744787.jpeg?auto=compress&cs=tinysrgb&dpr=1&fit=crop&h=200&w=280"
        }
      },
      {
        "id": 8744113,
        "width": 3744,
        "height": 5616,
        "url": "https://www.pexels.com/photo/grayscale-photo-of-a-woman-s-eyes-looking-at-the-camera-8744113/",
        "photographer": "Lisa",
        "photographer_url": "https://www.pexels.com/@lisa-78567396",
        "photographer_id": 78567396,
        "avg_color": "#AFAFAF",
        "src": {
          "original": "https://images.pexels.com/photos/8744113/pexels-photo-8744113.jpeg",
          "large2x": "https://images.pexels.com/photos/8744113/pexels-photo-8744113.jpeg?auto=compress&cs=tinysrgb&dpr=2&h=650&w=940",
          "large": "https://images.pexels.com/photos/8744113/pexels-photo-8744113.jpeg?auto=compress&cs=tinysrgb&h=650&w=940",
          "medium": "https://images.pexels.com/photos/8744113/pexels-photo-8744113.jpeg?auto=compress&cs=tinysrgb&h=350",
          "small": "https://images.pexels.com/photos/8744113/pexels-photo-8744113.jpeg?auto=compress&cs=tinysrgb&h=130",
          "portrait": "https://images.pexels.com/photos/8744113/pexels-photo-8744113.jpeg?auto=compress&cs=tinysrgb&fit=crop&h=1200&w=800",
          "landscape": "https://images.pexels.com/photos/8744113/pexels-photo-8744113.jpeg?auto=compress&cs=tinysrgb&fit=crop&h=627&w=1200",
          "tiny": "https://images.pexels.com/photos/8744113/pexels-photo-8744113.jpeg?auto=compress&cs=tinysrgb&dpr=1&fit=crop&h=200&w=280"
        }
      },
      {
        "id": 8638587,
        "width": 3840,
        "height": 5760,
        "url": "https://www.pexels.com/photo/woman-wearing-an-animal-print-top-posing-with-her-hand-on-her-cheek-8638587/",
        "photographer": "Pavel Danilyuk",
        "photographer_url": "https://www.pexels.com/@pavel-danilyuk",
        "photographer_id": 2297095,
        "avg_color": "#858794",
        "src": {
          "original": "https://images.pexels.com/photos/8638587/pexels-photo-8638587.jpeg",
          "large2x": "https://images.pexels.com/photos/8638587/pexels-photo-8638587.jpeg?auto=compress&cs=tinysrgb&dpr=2&h=650&w=940",
          "large": "https://images.pexels.com/photos/8638587/pexels-photo-8638587.jpeg?auto=compress&cs=tinysrgb&h=650&w=940",
          "medium": "https://images.pexels.com/photos/8638587/pexels-photo-8638587.jpeg?auto=compress&cs=tinysrgb&h=350",
          "small": "https://images.pexels.com/photos/8638587/pexels-photo-8638587.jpeg?auto=compress&cs=tinysrgb&h=130",
          "portrait": "https://images.pexels.com/photos/8638587/pexels-photo-8638587.jpeg?auto=compress&cs=tinysrgb&fit=crop&h=1200&w=800",
          "landscape": "https://images.pexels.com/photos/8638587/pexels-photo-8638587.jpeg?auto=compress&cs=tinysrgb&fit=crop&h=627&w=1200",
          "tiny": "https://images.pexels.com/photos/8638587/pexels-photo-8638587.jpeg?auto=compress&cs=tinysrgb&dpr=1&fit=crop&h=200&w=280"
        }
      },
      {
        "id": 8638537,
        "width": 3840,
        "height": 5760,
        "url": "https://www.pexels.com/photo/woman-in-an-animal-print-crop-top-posing-with-her-tongue-out-8638537/",
        "photographer": "Pavel Danilyuk",
        "photographer_url": "https://www.pexels.com/@pavel-danilyuk",
        "photographer_id": 2297095,
        "avg_color": "#94949C",
        "src": {
          "original": "https://images.pexels.com/photos/8638537/pexels-photo-8638537.jpeg",
          "large2x": "https://images.pexels.com/photos/8638537/pexels-photo-8638537.jpeg?auto=compress&cs=tinysrgb&dpr=2&h=650&w=940",
          "large": "https://images.pexels.com/photos/8638537/pexels-photo-8638537.jpeg?auto=compress&cs=tinysrgb&h=650&w=940",
          "medium": "https://images.pexels.com/photos/8638537/pexels-photo-8638537.jpeg?auto=compress&cs=tinysrgb&h=350",
          "small": "https://images.pexels.com/photos/8638537/pexels-photo-8638537.jpeg?auto=compress&cs=tinysrgb&h=130",
          "portrait": "https://images.pexels.com/photos/8638537/pexels-photo-8638537.jpeg?auto=compress&cs=tinysrgb&fit=crop&h=1200&w=800",
          "landscape": "https://images.pexels.com/photos/8638537/pexels-photo-8638537.jpeg?auto=compress&cs=tinysrgb&fit=crop&h=627&w=1200",
          "tiny": "https://images.pexels.com/photos/8638537/pexels-photo-8638537.jpeg?auto=compress&cs=tinysrgb&dpr=1&fit=crop&h=200&w=280"
        }
      },
      {
        "id": 8119500,
        "width": 4230,
        "height": 6345,
        "url": "https://www.pexels.com/photo/a-man-showing-teeth-with-his-finger-8119500/",
        "photographer": "RODNAE Productions",
        "photographer_url": "https://www.pexels.com/@rodnae-prod",
        "photographer_id": 3149039,
        "avg_color": "#5A5069",
        "src": {
          "original": "https://images.pexels.com/photos/8119500/pexels-photo-8119500.jpeg",
          "large2x": "https://images.pexels.com/photos/8119500/pexels-photo-8119500.jpeg?auto=compress&cs=tinysrgb&dpr=2&h=650&w=940",
          "large": "https://images.pexels.com/photos/8119500/pexels-photo-8119500.jpeg?auto=compress&cs=tinysrgb&h=650&w=940",
          "medium": "https://images.pexels.com/photos/8119500/pexels-photo-8119500.jpeg?auto=compress&cs=tinysrgb&h=350",
          "small": "https://images.pexels.com/photos/8119500/pexels-photo-8119500.jpeg?auto=compress&cs=tinysrgb&h=130",
          "portrait": "https://images.pexels.com/photos/8119500/pexels-photo-8119500.jpeg?auto=compress&cs=tinysrgb&fit=crop&h=1200&w=800",
          "landscape": "https://images.pexels.com/photos/8119500/pexels-photo-8119500.jpeg?auto=compress&cs=tinysrgb&fit=crop&h=627&w=1200",
          "tiny": "https://images.pexels.com/photos/8119500/pexels-photo-8119500.jpeg?auto=compress&cs=tinysrgb&dpr=1&fit=crop&h=200&w=280"
        }
      },
      {
        "id": 8737493,
        "width": 3000,
        "height": 4000,
        "url": "https://www.pexels.com/photo/monochrome-photo-of-a-person-s-silhouette-in-the-sea-8737493/",
        "photographer": "Игорь Лушницкий",
        "photographer_url": "https://www.pexels.com/@79382422",
        "photographer_id": 79382422,
        "avg_color": "#828282",
        "src": {
          "original": "https://images.pexels.com/photos/8737493/pexels-photo-8737493.jpeg",
          "large2x": "https://images.pexels.com/photos/8737493/pexels-photo-8737493.jpeg?auto=compress&cs=tinysrgb&dpr=2&h=650&w=940",
          "large": "https://images.pexels.com/photos/8737493/pexels-photo-8737493.jpeg?auto=compress&cs=tinysrgb&h=650&w=940",
          "medium": "https://images.pexels.com/photos/8737493/pexels-photo-8737493.jpeg?auto=compress&cs=tinysrgb&h=350",
          "small": "https://images.pexels.com/photos/8737493/pexels-photo-8737493.jpeg?auto=compress&cs=tinysrgb&h=130",
          "portrait": "https://images.pexels.com/photos/8737493/pexels-photo-8737493.jpeg?auto=compress&cs=tinysrgb&fit=crop&h=1200&w=800",
          "landscape": "https://images.pexels.com/photos/8737493/pexels-photo-8737493.jpeg?auto=compress&cs=tinysrgb&fit=crop&h=627&w=1200",
          "tiny": "https://images.pexels.com/photos/8737493/pexels-photo-8737493.jpeg?auto=compress&cs=tinysrgb&dpr=1&fit=crop&h=200&w=280"
        }
      },
      {
        "id": 8638549,
        "width": 3840,
        "height": 5760,
        "url": "https://www.pexels.com/photo/studio-shot-of-a-woman-in-a-zebra-print-crop-top-smiling-8638549/",
        "photographer": "Pavel Danilyuk",
        "photographer_url": "https://www.pexels.com/@pavel-danilyuk",
        "photographer_id": 2297095,
        "avg_color": "#8B8B93",
        "src": {
          "original": "https://images.pexels.com/photos/8638549/pexels-photo-8638549.jpeg",
          "large2x": "https://images.pexels.com/photos/8638549/pexels-photo-8638549.jpeg?auto=compress&cs=tinysrgb&dpr=2&h=650&w=940",
          "large": "https://images.pexels.com/photos/8638549/pexels-photo-8638549.jpeg?auto=compress&cs=tinysrgb&h=650&w=940",
          "medium": "https://images.pexels.com/photos/8638549/pexels-photo-8638549.jpeg?auto=compress&cs=tinysrgb&h=350",
          "small": "https://images.pexels.com/photos/8638549/pexels-photo-8638549.jpeg?auto=compress&cs=tinysrgb&h=130",
          "portrait": "https://images.pexels.com/photos/8638549/pexels-photo-8638549.jpeg?auto=compress&cs=tinysrgb&fit=crop&h=1200&w=800",
          "landscape": "https://images.pexels.com/photos/8638549/pexels-photo-8638549.jpeg?auto=compress&cs=tinysrgb&fit=crop&h=627&w=1200",
          "tiny": "https://images.pexels.com/photos/8638549/pexels-photo-8638549.jpeg?auto=compress&cs=tinysrgb&dpr=1&fit=crop&h=200&w=280"
        }
      },
      {
        "id": 8638548,
        "width": 3649,
        "height": 5474,
        "url": "https://www.pexels.com/photo/photo-of-a-woman-with-blue-hair-smiling-at-the-camera-8638548/",
        "photographer": "Pavel Danilyuk",
        "photographer_url": "https://www.pexels.com/@pavel-danilyuk",
        "photographer_id": 2297095,
        "avg_color": "#8B8C91",
        "src": {
          "original": "https://images.pexels.com/photos/8638548/pexels-photo-8638548.jpeg",
          "large2x": "https://images.pexels.com/photos/8638548/pexels-photo-8638548.jpeg?auto=compress&cs=tinysrgb&dpr=2&h=650&w=940",
          "large": "https://images.pexels.com/photos/8638548/pexels-photo-8638548.jpeg?auto=compress&cs=tinysrgb&h=650&w=940",
          "medium": "https://images.pexels.com/photos/8638548/pexels-photo-8638548.jpeg?auto=compress&cs=tinysrgb&h=350",
          "small": "https://images.pexels.com/photos/8638548/pexels-photo-8638548.jpeg?auto=compress&cs=tinysrgb&h=130",
          "portrait": "https://images.pexels.com/photos/8638548/pexels-photo-8638548.jpeg?auto=compress&cs=tinysrgb&fit=crop&h=1200&w=800",
          "landscape": "https://images.pexels.com/photos/8638548/pexels-photo-8638548.jpeg?auto=compress&cs=tinysrgb&fit=crop&h=627&w=1200",
          "tiny": "https://images.pexels.com/photos/8638548/pexels-photo-8638548.jpeg?auto=compress&cs=tinysrgb&dpr=1&fit=crop&h=200&w=280"
        }
      },
      {
        "id": 8737310,
        "width": 3456,
        "height": 5184,
        "url": "https://www.pexels.com/photo/woman-in-a-black-sports-bra-lying-on-the-floor-8737310/",
        "photographer": "Alexandra De",
        "photographer_url": "https://www.pexels.com/@alexandra-de-80196505",
        "photographer_id": 80196505,
        "avg_color": "#2B241E",
        "src": {
          "original": "https://images.pexels.com/photos/8737310/pexels-photo-8737310.jpeg",
          "large2x": "https://images.pexels.com/photos/8737310/pexels-photo-8737310.jpeg?auto=compress&cs=tinysrgb&dpr=2&h=650&w=940",
          "large": "https://images.pexels.com/photos/8737310/pexels-photo-8737310.jpeg?auto=compress&cs=tinysrgb&h=650&w=940",
          "medium": "https://images.pexels.com/photos/8737310/pexels-photo-8737310.jpeg?auto=compress&cs=tinysrgb&h=350",
          "small": "https://images.pexels.com/photos/8737310/pexels-photo-8737310.jpeg?auto=compress&cs=tinysrgb&h=130",
          "portrait": "https://images.pexels.com/photos/8737310/pexels-photo-8737310.jpeg?auto=compress&cs=tinysrgb&fit=crop&h=1200&w=800",
          "landscape": "https://images.pexels.com/photos/8737310/pexels-photo-8737310.jpeg?auto=compress&cs=tinysrgb&fit=crop&h=627&w=1200",
          "tiny": "https://images.pexels.com/photos/8737310/pexels-photo-8737310.jpeg?auto=compress&cs=tinysrgb&dpr=1&fit=crop&h=200&w=280"
        }
      },
      {
        "id": 7212834,
        "width": 2800,
        "height": 3500,
        "url": "https://www.pexels.com/photo/close-up-photo-of-a-man-covering-his-face-with-his-hand-with-rings-7212834/",
        "photographer": "Amusan",
        "photographer_url": "https://www.pexels.com/@picturesbyamusan",
        "photographer_id": 3367119,
        "avg_color": "#122929",
        "src": {
          "original": "https://images.pexels.com/photos/7212834/pexels-photo-7212834.jpeg",
          "large2x": "https://images.pexels.com/photos/7212834/pexels-photo-7212834.jpeg?auto=compress&cs=tinysrgb&dpr=2&h=650&w=940",
          "large": "https://images.pexels.com/photos/7212834/pexels-photo-7212834.jpeg?auto=compress&cs=tinysrgb&h=650&w=940",
          "medium": "https://images.pexels.com/photos/7212834/pexels-photo-7212834.jpeg?auto=compress&cs=tinysrgb&h=350",
          "small": "https://images.pexels.com/photos/7212834/pexels-photo-7212834.jpeg?auto=compress&cs=tinysrgb&h=130",
          "portrait": "https://images.pexels.com/photos/7212834/pexels-photo-7212834.jpeg?auto=compress&cs=tinysrgb&fit=crop&h=1200&w=800",
          "landscape": "https://images.pexels.com/photos/7212834/pexels-photo-7212834.jpeg?auto=compress&cs=tinysrgb&fit=crop&h=627&w=1200",
          "tiny": "https://images.pexels.com/photos/7212834/pexels-photo-7212834.jpeg?auto=compress&cs=tinysrgb&dpr=1&fit=crop&h=200&w=280"
        }
      },
      {
        "id": 8638588,
        "width": 3840,
        "height": 5760,
        "url": "https://www.pexels.com/photo/photo-of-a-woman-with-blue-hair-posing-with-her-tongue-out-8638588/",
        "photographer": "Pavel Danilyuk",
        "photographer_url": "https://www.pexels.com/@pavel-danilyuk",
        "photographer_id": 2297095,
        "avg_color": "#919297",
        "src": {
          "original": "https://images.pexels.com/photos/8638588/pexels-photo-8638588.jpeg",
          "large2x": "https://images.pexels.com/photos/8638588/pexels-photo-8638588.jpeg?auto=compress&cs=tinysrgb&dpr=2&h=650&w=940",
          "large": "https://images.pexels.com/photos/8638588/pexels-photo-8638588.jpeg?auto=compress&cs=tinysrgb&h=650&w=940",
          "medium": "https://images.pexels.com/photos/8638588/pexels-photo-8638588.jpeg?auto=compress&cs=tinysrgb&h=350",
          "small": "https://images.pexels.com/photos/8638588/pexels-photo-8638588.jpeg?auto=compress&cs=tinysrgb&h=130",
          "portrait": "https://images.pexels.com/photos/8638588/pexels-photo-8638588.jpeg?auto=compress&cs=tinysrgb&fit=crop&h=1200&w=800",
          "landscape": "https://images.pexels.com/photos/8638588/pexels-photo-8638588.jpeg?auto=compress&cs=tinysrgb&fit=crop&h=627&w=1200",
          "tiny": "https://images.pexels.com/photos/8638588/pexels-photo-8638588.jpeg?auto=compress&cs=tinysrgb&dpr=1&fit=crop&h=200&w=280"
        }
      },
      {
        "id": 8638552,
        "width": 3840,
        "height": 5760,
        "url": "https://www.pexels.com/photo/person-woman-model-blue-hair-8638552/",
        "photographer": "Pavel Danilyuk",
        "photographer_url": "https://www.pexels.com/@pavel-danilyuk",
        "photographer_id": 2297095,
        "avg_color": "#888B94",
        "src": {
          "original": "https://images.pexels.com/photos/8638552/pexels-photo-8638552.jpeg",
          "large2x": "https://images.pexels.com/photos/8638552/pexels-photo-8638552.jpeg?auto=compress&cs=tinysrgb&dpr=2&h=650&w=940",
          "large": "https://images.pexels.com/photos/8638552/pexels-photo-8638552.jpeg?auto=compress&cs=tinysrgb&h=650&w=940",
          "medium": "https://images.pexels.com/photos/8638552/pexels-photo-8638552.jpeg?auto=compress&cs=tinysrgb&h=350",
          "small": "https://images.pexels.com/photos/8638552/pexels-photo-8638552.jpeg?auto=compress&cs=tinysrgb&h=130",
          "portrait": "https://images.pexels.com/photos/8638552/pexels-photo-8638552.jpeg?auto=compress&cs=tinysrgb&fit=crop&h=1200&w=800",
          "landscape": "https://images.pexels.com/photos/8638552/pexels-photo-8638552.jpeg?auto=compress&cs=tinysrgb&fit=crop&h=627&w=1200",
          "tiny": "https://images.pexels.com/photos/8638552/pexels-photo-8638552.jpeg?auto=compress&cs=tinysrgb&dpr=1&fit=crop&h=200&w=280"
        }
      },
      {
        "id": 8638544,
        "width": 5760,
        "height": 3840,
        "url": "https://www.pexels.com/photo/photo-of-a-woman-in-blue-denim-jeans-and-zebra-print-crop-top-8638544/",
        "photographer": "Pavel Danilyuk",
        "photographer_url": "https://www.pexels.com/@pavel-danilyuk",
        "photographer_id": 2297095,
        "avg_color": "#969698",
        "src": {
          "original": "https://images.pexels.com/photos/8638544/pexels-photo-8638544.jpeg",
          "large2x": "https://images.pexels.com/photos/8638544/pexels-photo-8638544.jpeg?auto=compress&cs=tinysrgb&dpr=2&h=650&w=940",
          "large": "https://images.pexels.com/photos/8638544/pexels-photo-8638544.jpeg?auto=compress&cs=tinysrgb&h=650&w=940",
          "medium": "https://images.pexels.com/photos/8638544/pexels-photo-8638544.jpeg?auto=compress&cs=tinysrgb&h=350",
          "small": "https://images.pexels.com/photos/8638544/pexels-photo-8638544.jpeg?auto=compress&cs=tinysrgb&h=130",
          "portrait": "https://images.pexels.com/photos/8638544/pexels-photo-8638544.jpeg?auto=compress&cs=tinysrgb&fit=crop&h=1200&w=800",
          "landscape": "https://images.pexels.com/photos/8638544/pexels-photo-8638544.jpeg?auto=compress&cs=tinysrgb&fit=crop&h=627&w=1200",
          "tiny": "https://images.pexels.com/photos/8638544/pexels-photo-8638544.jpeg?auto=compress&cs=tinysrgb&dpr=1&fit=crop&h=200&w=280"
        }
      }
    ],
    "total_results": 8000,
    "next_page": "https://api.pexels.com/v1/search/?page=2&per_page=15&query=people"
  }